<svg width="20" height="19" viewBox="0 0 20 19" fill="none" xmlns="http://www.w3.org/2000/svg">
<path fill-rule="evenodd" clip-rule="evenodd" d="M10.0001 19C10.3438 19 10.6956 18.9898 11.0504 18.9715C13.0249 18.8697 14.0121 18.8188 15.0871 18.1688C15.7626 17.7604 16.5332 16.949 16.9063 16.2533C17.5001 15.1463 17.5001 13.9309 17.5001 11.5C18.7537 11.3209 19.3805 11.2314 19.6763 10.8729C19.8395 10.6753 19.9373 10.4219 19.9495 10.1659C19.9714 9.70168 19.5721 9.21947 18.7734 8.25504C17.9554 7.26729 16.9868 6.11971 16.0001 5C15.6632 4.61773 15.3381 4.23871 15.0223 3.8704C13.2116 1.75911 11.703 3.28378e-06 10.0001 0C8.29713 3.28378e-06 6.7885 1.75911 4.97785 3.8704C4.66199 4.23871 4.33694 4.61773 4.00006 5C3.01331 6.11971 2.04468 7.26729 1.2267 8.25504C0.428026 9.21947 0.0286919 9.70168 0.0506645 10.1659C0.0627838 10.4219 0.160652 10.6753 0.323782 10.8729C0.619569 11.2314 1.2464 11.3209 2.50004 11.5C2.50004 13.9308 2.50006 15.1463 3.09377 16.2533C3.46689 16.949 4.23749 17.7604 4.91304 18.1688C5.98801 18.8188 6.97525 18.8697 8.94973 18.9715C9.30447 18.9898 9.65633 19 10.0001 19ZM11.5141 2.97733C10.6162 2.11493 10.1772 2 10.0001 2C9.82297 2 9.38387 2.11493 8.48599 2.97733C7.87903 3.56029 7.28187 4.25685 6.57105 5.08598C6.24261 5.46908 5.8897 5.88073 5.50056 6.32232C4.53525 7.4177 3.58417 8.54417 2.77658 9.5192L2.7829 9.5201C3.60161 9.63706 4.01097 9.69554 4.25552 9.9775C4.25551 9.9775 4.25552 9.9775 4.25552 9.9775C4.50006 10.2595 4.50006 10.673 4.50006 11.5C4.50006 14.1217 4.55303 14.7426 4.85629 15.308C5.05992 15.6877 5.57918 16.2344 5.94785 16.4573C6.51527 16.8004 6.96212 16.8663 9.05275 16.9742C9.37818 16.991 9.69535 17 10.0001 17C10.3048 17 10.6219 16.991 10.9474 16.9742C13.038 16.8663 13.4849 16.8004 14.0523 16.4573C14.4209 16.2344 14.9402 15.6877 15.1438 15.308C15.4471 14.7426 15.5001 14.1217 15.5001 11.5C15.5001 10.673 15.5001 10.2595 15.7446 9.9775C15.7446 9.9775 15.7446 9.9775 15.7446 9.9775C15.9892 9.69554 16.3985 9.63706 17.2172 9.5201L17.2235 9.5192C16.416 8.54417 15.4649 7.4177 14.4996 6.32232C14.1105 5.88079 13.7578 5.4694 13.4294 5.08634C12.7186 4.2572 12.1211 3.56029 11.5141 2.97733Z" fill="black"/>
</svg>
